C:\Users\Graduate\Test\productionfinal\src\main\java\servelets\DataInstServelet.java
C:\Users\Graduate\Test\productionfinal\src\main\java\service\UserProfileService.java
C:\Users\Graduate\Test\productionfinal\src\main\java\servelets\DataServelet.java
C:\Users\Graduate\Test\productionfinal\src\main\java\entity\UserProfile.java
C:\Users\Graduate\Test\productionfinal\src\main\java\responce\Instrument.java
C:\Users\Graduate\Test\productionfinal\src\main\java\servelets\RegisterServelet.java
C:\Users\Graduate\Test\productionfinal\src\main\java\servelets\RootServelet.java
C:\Users\Graduate\Test\productionfinal\src\main\java\responce\InstrumentsResponse.java
C:\Users\Graduate\Test\productionfinal\src\main\java\listener\StartUpListener.java
C:\Users\Graduate\Test\productionfinal\src\main\java\servelets\LoginServelet.java
C:\Users\Graduate\Test\productionfinal\src\main\java\dbService\DBService.java
C:\Users\Graduate\Test\productionfinal\src\main\java\responce\Deal.java
C:\Users\Graduate\Test\productionfinal\src\main\java\responce\Response.java
